MEF MGMT 553 Spring 2022-2023 - Statistical Models in R: Part 2
…
titanic_data <-
ptitanic %>%
select(survived,pclass,sex,age) %>% #Select only required columns
mutate(age=as.numeric(age)) %>% #This is a fix, just for this data set
filter(complete.cases(.)) %>% #Remove all NA including rows
#Split the data into train and test
mutate(train_test = ifelse(runif(nrow(.)) < 0.25,"test","train")) %>%
tbl_df()

Warning: `tbl_df()` was deprecated in dplyr 1.0.0.
ℹ Please use `tibble::as_tibble()` instead.

print(titanic_data)

# A tibble: 1,046 × 5
   survived pclass sex       age train_test
   <fct>    <fct>  <fct>   <dbl> <chr>     
 1 survived 1st    female 29     train     
 2 survived 1st    male    0.917 test      
 3 died     1st    female  2     train     
 4 died     1st    male   30     train     
 5 died     1st    female 25     train     
 6 survived 1st    male   48     train     
 7 survived 1st    female 63     test      
 8 died     1st    male   39     train     
 9 survived 1st    female 53     train     
10 died     1st    male   71     train     
# … with 1,036 more rows
…
